<?xml version="1.0" encoding="UTF-8" standalone="no"?>
<!-- Created with Inkscape (http://www.inkscape.org/) -->

<svg
   xmlns:dc="http://purl.org/dc/elements/1.1/"
   xmlns:cc="http://creativecommons.org/ns#"
   xmlns:rdf="http://www.w3.org/1999/02/22-rdf-syntax-ns#"
   xmlns:svg="http://www.w3.org/2000/svg"
   xmlns="http://www.w3.org/2000/svg"
   xmlns:xlink="http://www.w3.org/1999/xlink"
   xmlns:sodipodi="http://sodipodi.sourceforge.net/DTD/sodipodi-0.dtd"
   xmlns:inkscape="http://www.inkscape.org/namespaces/inkscape"
   width="744.09448819"
   height="1052.3622047"
   id="svg2"
   version="1.1"
   inkscape:version="0.91 r13725"
   sodipodi:docname="newmap.svg"
   inkscape:export-filename="C:\Users\SLiV\Dropbox\Hemel en Aarde\HemelEnAarde\newmap.png"
   inkscape:export-xdpi="182.45503"
   inkscape:export-ydpi="182.45503">
  <defs
     id="defs4" />
  <sodipodi:namedview
     id="base"
     pagecolor="#ffffff"
     bordercolor="#666666"
     borderopacity="1.0"
     inkscape:pageopacity="0.0"
     inkscape:pageshadow="2"
     inkscape:zoom="1.4"
     inkscape:cx="338.99964"
     inkscape:cy="730.35765"
     inkscape:document-units="px"
     inkscape:current-layer="layer4"
     showgrid="false"
     inkscape:window-width="1920"
     inkscape:window-height="1023"
     inkscape:window-x="0"
     inkscape:window-y="0"
     inkscape:window-maximized="1"
     inkscape:snap-global="true"
     showguides="true"
     inkscape:snap-bbox="true"
     inkscape:snap-bbox-midpoints="true">
    <inkscape:grid
       type="xygrid"
       id="grid6109" />
  </sodipodi:namedview>
  <metadata
     id="metadata7">
    <rdf:RDF>
      <cc:Work
         rdf:about="">
        <dc:format>image/svg+xml</dc:format>
        <dc:type
           rdf:resource="http://purl.org/dc/dcmitype/StillImage" />
        <dc:title />
      </cc:Work>
    </rdf:RDF>
  </metadata>
  <g
     inkscape:label="Grass"
     inkscape:groupmode="layer"
     id="layer1">
    <path
       sodipodi:type="star"
       style="fill:#dde7b6;fill-opacity:1;stroke:#494949;stroke-opacity:1"
       id="path3007"
       sodipodi:sides="6"
       sodipodi:cx="47.142857"
       sodipodi:cy="42.362183"
       sodipodi:r1="30.033995"
       sodipodi:r2="26.010202"
       sodipodi:arg1="0.52359878"
       sodipodi:arg2="1.0471976"
       inkscape:flatsided="true"
       inkscape:rounded="0"
       inkscape:randomized="0"
       d="M 73.153059,57.37918 47.142856,72.396177 21.132654,57.37918 l 0,-30.033995 26.010203,-15.016997 26.010202,15.016997 z"
       inkscape:tile-cx="47.142857"
       inkscape:tile-cy="42.362183"
       inkscape:tile-w="52.020405"
       inkscape:tile-h="60.067989"
       inkscape:tile-x0="21.132654"
       inkscape:tile-y0="12.328188"
       transform="translate(13.57143,720)" />
    <use
       x="0"
       y="0"
       inkscape:tiled-clone-of="#path3007"
       xlink:href="#path3007"
       transform="translate(173.0306,-666.37758)"
       id="use5275"
       width="744.09448"
       height="1052.3622"
       inkscape:export-filename="C:\Users\SLiV\Dropbox\Hemel en Aarde\HemelEnAarde\kaart3.png"
       inkscape:export-xdpi="182"
       inkscape:export-ydpi="182" />
    <use
       x="0"
       y="0"
       inkscape:tiled-clone-of="#path3007"
       xlink:href="#path3007"
       transform="translate(147.0204,-621.32658)"
       id="use5277"
       width="744.09448"
       height="1052.3622"
       inkscape:export-filename="C:\Users\SLiV\Dropbox\Hemel en Aarde\HemelEnAarde\kaart3.png"
       inkscape:export-xdpi="182"
       inkscape:export-ydpi="182" />
    <use
       x="0"
       y="0"
       inkscape:tiled-clone-of="#path3007"
       xlink:href="#path3007"
       transform="translate(121.0102,-576.27559)"
       id="use5279"
       width="744.09448"
       height="1052.3622"
       inkscape:export-filename="C:\Users\SLiV\Dropbox\Hemel en Aarde\HemelEnAarde\kaart3.png"
       inkscape:export-xdpi="182"
       inkscape:export-ydpi="182" />
    <use
       x="0"
       y="0"
       inkscape:tiled-clone-of="#path3007"
       xlink:href="#path3007"
       transform="translate(94.999994,-531.2246)"
       id="use5281"
       width="744.09448"
       height="1052.3622"
       inkscape:export-filename="C:\Users\SLiV\Dropbox\Hemel en Aarde\HemelEnAarde\kaart3.png"
       inkscape:export-xdpi="182"
       inkscape:export-ydpi="182" />
    <use
       x="0"
       y="0"
       inkscape:tiled-clone-of="#path3007"
       xlink:href="#path3007"
       transform="translate(68.989799,-486.17361)"
       id="use5283"
       width="744.09448"
       height="1052.3622"
       inkscape:export-filename="C:\Users\SLiV\Dropbox\Hemel en Aarde\HemelEnAarde\kaart3.png"
       inkscape:export-xdpi="182"
       inkscape:export-ydpi="182" />
    <use
       x="0"
       y="0"
       inkscape:tiled-clone-of="#path3007"
       xlink:href="#path3007"
       transform="translate(225.05101,-666.37758)"
       id="use5299"
       width="744.09448"
       height="1052.3622"
       inkscape:export-filename="C:\Users\SLiV\Dropbox\Hemel en Aarde\HemelEnAarde\kaart3.png"
       inkscape:export-xdpi="182"
       inkscape:export-ydpi="182" />
    <use
       x="0"
       y="0"
       inkscape:tiled-clone-of="#path3007"
       xlink:href="#path3007"
       transform="translate(199.04081,-621.32658)"
       id="use5301"
       width="744.09448"
       height="1052.3622"
       inkscape:export-filename="C:\Users\SLiV\Dropbox\Hemel en Aarde\HemelEnAarde\kaart3.png"
       inkscape:export-xdpi="182"
       inkscape:export-ydpi="182" />
    <use
       x="0"
       y="0"
       inkscape:tiled-clone-of="#path3007"
       xlink:href="#path3007"
       transform="translate(173.0306,-576.27559)"
       id="use5303"
       width="744.09448"
       height="1052.3622"
       inkscape:export-filename="C:\Users\SLiV\Dropbox\Hemel en Aarde\HemelEnAarde\kaart3.png"
       inkscape:export-xdpi="182"
       inkscape:export-ydpi="182" />
    <use
       x="0"
       y="0"
       inkscape:tiled-clone-of="#path3007"
       xlink:href="#path3007"
       transform="translate(147.0204,-531.2246)"
       id="use5305"
       width="744.09448"
       height="1052.3622"
       inkscape:export-filename="C:\Users\SLiV\Dropbox\Hemel en Aarde\HemelEnAarde\kaart3.png"
       inkscape:export-xdpi="182"
       inkscape:export-ydpi="182" />
    <use
       x="0"
       y="0"
       inkscape:tiled-clone-of="#path3007"
       xlink:href="#path3007"
       transform="translate(121.0102,-486.17361)"
       id="use5307"
       width="744.09448"
       height="1052.3622"
       inkscape:export-filename="C:\Users\SLiV\Dropbox\Hemel en Aarde\HemelEnAarde\kaart3.png"
       inkscape:export-xdpi="182"
       inkscape:export-ydpi="182" />
    <use
       x="0"
       y="0"
       inkscape:tiled-clone-of="#path3007"
       xlink:href="#path3007"
       transform="translate(94.999994,-441.12262)"
       id="use5309"
       width="744.09448"
       height="1052.3622"
       inkscape:export-filename="C:\Users\SLiV\Dropbox\Hemel en Aarde\HemelEnAarde\kaart3.png"
       inkscape:export-xdpi="182"
       inkscape:export-ydpi="182" />
    <use
       x="0"
       y="0"
       inkscape:tiled-clone-of="#path3007"
       xlink:href="#path3007"
       transform="translate(68.989799,-396.07163)"
       id="use5311"
       width="744.09448"
       height="1052.3622"
       inkscape:export-filename="C:\Users\SLiV\Dropbox\Hemel en Aarde\HemelEnAarde\kaart3.png"
       inkscape:export-xdpi="182"
       inkscape:export-ydpi="182" />
    <use
       x="0"
       y="0"
       inkscape:tiled-clone-of="#path3007"
       xlink:href="#path3007"
       transform="translate(277.07142,-666.37758)"
       id="use5323"
       width="744.09448"
       height="1052.3622"
       inkscape:export-filename="C:\Users\SLiV\Dropbox\Hemel en Aarde\HemelEnAarde\kaart3.png"
       inkscape:export-xdpi="182"
       inkscape:export-ydpi="182" />
    <use
       x="0"
       y="0"
       inkscape:tiled-clone-of="#path3007"
       xlink:href="#path3007"
       transform="translate(251.06121,-621.32658)"
       id="use5325"
       width="744.09448"
       height="1052.3622"
       inkscape:export-filename="C:\Users\SLiV\Dropbox\Hemel en Aarde\HemelEnAarde\kaart3.png"
       inkscape:export-xdpi="182"
       inkscape:export-ydpi="182" />
    <use
       x="0"
       y="0"
       inkscape:tiled-clone-of="#path3007"
       xlink:href="#path3007"
       transform="translate(225.05101,-576.27559)"
       id="use5327"
       width="744.09448"
       height="1052.3622"
       inkscape:export-filename="C:\Users\SLiV\Dropbox\Hemel en Aarde\HemelEnAarde\kaart3.png"
       inkscape:export-xdpi="182"
       inkscape:export-ydpi="182" />
    <use
       x="0"
       y="0"
       inkscape:tiled-clone-of="#path3007"
       xlink:href="#path3007"
       transform="translate(199.04081,-531.2246)"
       id="use5329"
       width="744.09448"
       height="1052.3622"
       inkscape:export-filename="C:\Users\SLiV\Dropbox\Hemel en Aarde\HemelEnAarde\kaart3.png"
       inkscape:export-xdpi="182"
       inkscape:export-ydpi="182" />
    <use
       x="0"
       y="0"
       inkscape:tiled-clone-of="#path3007"
       xlink:href="#path3007"
       transform="translate(173.0306,-486.17361)"
       id="use5331"
       width="744.09448"
       height="1052.3622"
       inkscape:export-filename="C:\Users\SLiV\Dropbox\Hemel en Aarde\HemelEnAarde\kaart3.png"
       inkscape:export-xdpi="182"
       inkscape:export-ydpi="182" />
    <use
       x="0"
       y="0"
       inkscape:tiled-clone-of="#path3007"
       xlink:href="#path3007"
       transform="translate(147.0204,-441.12262)"
       id="use5333"
       width="744.09448"
       height="1052.3622"
       inkscape:export-filename="C:\Users\SLiV\Dropbox\Hemel en Aarde\HemelEnAarde\kaart3.png"
       inkscape:export-xdpi="182"
       inkscape:export-ydpi="182" />
    <use
       x="0"
       y="0"
       inkscape:tiled-clone-of="#path3007"
       xlink:href="#path3007"
       transform="translate(121.0102,-396.07163)"
       id="use5335"
       width="744.09448"
       height="1052.3622"
       inkscape:export-filename="C:\Users\SLiV\Dropbox\Hemel en Aarde\HemelEnAarde\kaart3.png"
       inkscape:export-xdpi="182"
       inkscape:export-ydpi="182" />
    <use
       x="0"
       y="0"
       inkscape:tiled-clone-of="#path3007"
       xlink:href="#path3007"
       transform="translate(94.999994,-351.02064)"
       id="use5337"
       width="744.09448"
       height="1052.3622"
       inkscape:export-filename="C:\Users\SLiV\Dropbox\Hemel en Aarde\HemelEnAarde\kaart3.png"
       inkscape:export-xdpi="182"
       inkscape:export-ydpi="182" />
    <use
       x="0"
       y="0"
       inkscape:tiled-clone-of="#path3007"
       xlink:href="#path3007"
       transform="translate(329.09182,-666.37758)"
       id="use5347"
       width="744.09448"
       height="1052.3622"
       inkscape:export-filename="C:\Users\SLiV\Dropbox\Hemel en Aarde\HemelEnAarde\kaart3.png"
       inkscape:export-xdpi="182"
       inkscape:export-ydpi="182" />
    <use
       x="0"
       y="0"
       inkscape:tiled-clone-of="#path3007"
       xlink:href="#path3007"
       transform="translate(303.08162,-621.32658)"
       id="use5349"
       width="744.09448"
       height="1052.3622"
       inkscape:export-filename="C:\Users\SLiV\Dropbox\Hemel en Aarde\HemelEnAarde\kaart3.png"
       inkscape:export-xdpi="182"
       inkscape:export-ydpi="182" />
    <use
       x="0"
       y="0"
       inkscape:tiled-clone-of="#path3007"
       xlink:href="#path3007"
       transform="translate(277.07142,-576.27559)"
       id="use5351"
       width="744.09448"
       height="1052.3622"
       inkscape:export-filename="C:\Users\SLiV\Dropbox\Hemel en Aarde\HemelEnAarde\kaart3.png"
       inkscape:export-xdpi="182"
       inkscape:export-ydpi="182" />
    <use
       x="0"
       y="0"
       inkscape:tiled-clone-of="#path3007"
       xlink:href="#path3007"
       transform="translate(251.06121,-531.2246)"
       id="use5353"
       width="744.09448"
       height="1052.3622"
       inkscape:export-filename="C:\Users\SLiV\Dropbox\Hemel en Aarde\HemelEnAarde\kaart3.png"
       inkscape:export-xdpi="182"
       inkscape:export-ydpi="182" />
    <use
       x="0"
       y="0"
       inkscape:tiled-clone-of="#path3007"
       xlink:href="#path3007"
       transform="translate(225.05101,-486.17361)"
       id="use5355"
       width="744.09448"
       height="1052.3622"
       inkscape:export-filename="C:\Users\SLiV\Dropbox\Hemel en Aarde\HemelEnAarde\kaart3.png"
       inkscape:export-xdpi="182"
       inkscape:export-ydpi="182" />
    <use
       x="0"
       y="0"
       inkscape:tiled-clone-of="#path3007"
       xlink:href="#path3007"
       transform="translate(199.04081,-441.12262)"
       id="use5357"
       width="744.09448"
       height="1052.3622"
       inkscape:export-filename="C:\Users\SLiV\Dropbox\Hemel en Aarde\HemelEnAarde\kaart3.png"
       inkscape:export-xdpi="182"
       inkscape:export-ydpi="182" />
    <use
       x="0"
       y="0"
       inkscape:tiled-clone-of="#path3007"
       xlink:href="#path3007"
       transform="translate(173.0306,-396.07163)"
       id="use5359"
       width="744.09448"
       height="1052.3622"
       inkscape:export-filename="C:\Users\SLiV\Dropbox\Hemel en Aarde\HemelEnAarde\kaart3.png"
       inkscape:export-xdpi="182"
       inkscape:export-ydpi="182" />
    <use
       x="0"
       y="0"
       inkscape:tiled-clone-of="#path3007"
       xlink:href="#path3007"
       transform="translate(147.0204,-351.02064)"
       id="use5361"
       width="744.09448"
       height="1052.3622"
       inkscape:export-filename="C:\Users\SLiV\Dropbox\Hemel en Aarde\HemelEnAarde\kaart3.png"
       inkscape:export-xdpi="182"
       inkscape:export-ydpi="182" />
    <use
       x="0"
       y="0"
       inkscape:tiled-clone-of="#path3007"
       xlink:href="#path3007"
       transform="translate(121.0102,-305.96964)"
       id="use5363"
       width="744.09448"
       height="1052.3622"
       inkscape:export-filename="C:\Users\SLiV\Dropbox\Hemel en Aarde\HemelEnAarde\kaart3.png"
       inkscape:export-xdpi="182"
       inkscape:export-ydpi="182" />
    <use
       x="0"
       y="0"
       inkscape:tiled-clone-of="#path3007"
       xlink:href="#path3007"
       transform="translate(381.11223,-666.37758)"
       id="use5371"
       width="744.09448"
       height="1052.3622"
       inkscape:export-filename="C:\Users\SLiV\Dropbox\Hemel en Aarde\HemelEnAarde\kaart3.png"
       inkscape:export-xdpi="182"
       inkscape:export-ydpi="182" />
    <use
       x="0"
       y="0"
       inkscape:tiled-clone-of="#path3007"
       xlink:href="#path3007"
       transform="translate(355.10202,-621.32658)"
       id="use5373"
       width="744.09448"
       height="1052.3622"
       inkscape:export-filename="C:\Users\SLiV\Dropbox\Hemel en Aarde\HemelEnAarde\kaart3.png"
       inkscape:export-xdpi="182"
       inkscape:export-ydpi="182" />
    <use
       x="0"
       y="0"
       inkscape:tiled-clone-of="#path3007"
       xlink:href="#path3007"
       transform="translate(329.09182,-576.27559)"
       id="use5375"
       width="744.09448"
       height="1052.3622"
       inkscape:export-filename="C:\Users\SLiV\Dropbox\Hemel en Aarde\HemelEnAarde\kaart3.png"
       inkscape:export-xdpi="182"
       inkscape:export-ydpi="182" />
    <use
       x="0"
       y="0"
       inkscape:tiled-clone-of="#path3007"
       xlink:href="#path3007"
       transform="translate(303.08162,-531.2246)"
       id="use5377"
       width="744.09448"
       height="1052.3622"
       inkscape:export-filename="C:\Users\SLiV\Dropbox\Hemel en Aarde\HemelEnAarde\kaart3.png"
       inkscape:export-xdpi="182"
       inkscape:export-ydpi="182" />
    <use
       x="0"
       y="0"
       inkscape:tiled-clone-of="#path3007"
       xlink:href="#path3007"
       transform="translate(277.07142,-486.17361)"
       id="use5379"
       width="744.09448"
       height="1052.3622"
       inkscape:export-filename="C:\Users\SLiV\Dropbox\Hemel en Aarde\HemelEnAarde\kaart3.png"
       inkscape:export-xdpi="182"
       inkscape:export-ydpi="182" />
    <use
       x="0"
       y="0"
       inkscape:tiled-clone-of="#path3007"
       xlink:href="#path3007"
       transform="translate(251.06121,-441.12262)"
       id="use5381"
       width="744.09448"
       height="1052.3622"
       inkscape:export-filename="C:\Users\SLiV\Dropbox\Hemel en Aarde\HemelEnAarde\kaart3.png"
       inkscape:export-xdpi="182"
       inkscape:export-ydpi="182" />
    <use
       x="0"
       y="0"
       inkscape:tiled-clone-of="#path3007"
       xlink:href="#path3007"
       transform="translate(225.05101,-396.07163)"
       id="use5383"
       width="744.09448"
       height="1052.3622"
       inkscape:export-filename="C:\Users\SLiV\Dropbox\Hemel en Aarde\HemelEnAarde\kaart3.png"
       inkscape:export-xdpi="182"
       inkscape:export-ydpi="182" />
    <use
       x="0"
       y="0"
       inkscape:tiled-clone-of="#path3007"
       xlink:href="#path3007"
       transform="translate(199.04081,-351.02064)"
       id="use5385"
       width="744.09448"
       height="1052.3622"
       inkscape:export-filename="C:\Users\SLiV\Dropbox\Hemel en Aarde\HemelEnAarde\kaart3.png"
       inkscape:export-xdpi="182"
       inkscape:export-ydpi="182" />
    <use
       x="0"
       y="0"
       inkscape:tiled-clone-of="#path3007"
       xlink:href="#path3007"
       transform="translate(173.0306,-305.96964)"
       id="use5387"
       width="744.09448"
       height="1052.3622"
       inkscape:export-filename="C:\Users\SLiV\Dropbox\Hemel en Aarde\HemelEnAarde\kaart3.png"
       inkscape:export-xdpi="182"
       inkscape:export-ydpi="182" />
    <use
       x="0"
       y="0"
       inkscape:tiled-clone-of="#path3007"
       xlink:href="#path3007"
       transform="translate(147.0204,-260.91865)"
       id="use5389"
       width="744.09448"
       height="1052.3622"
       inkscape:export-filename="C:\Users\SLiV\Dropbox\Hemel en Aarde\HemelEnAarde\kaart3.png"
       inkscape:export-xdpi="182"
       inkscape:export-ydpi="182" />
    <use
       x="0"
       y="0"
       inkscape:tiled-clone-of="#path3007"
       xlink:href="#path3007"
       transform="translate(433.13263,-666.37758)"
       id="use5395"
       width="744.09448"
       height="1052.3622"
       inkscape:export-filename="C:\Users\SLiV\Dropbox\Hemel en Aarde\HemelEnAarde\kaart3.png"
       inkscape:export-xdpi="182"
       inkscape:export-ydpi="182" />
    <use
       x="0"
       y="0"
       inkscape:tiled-clone-of="#path3007"
       xlink:href="#path3007"
       transform="translate(407.12243,-621.32658)"
       id="use5397"
       width="744.09448"
       height="1052.3622"
       inkscape:export-filename="C:\Users\SLiV\Dropbox\Hemel en Aarde\HemelEnAarde\kaart3.png"
       inkscape:export-xdpi="182"
       inkscape:export-ydpi="182" />
    <use
       x="0"
       y="0"
       inkscape:tiled-clone-of="#path3007"
       xlink:href="#path3007"
       transform="translate(381.11223,-576.27559)"
       id="use5399"
       width="744.09448"
       height="1052.3622"
       inkscape:export-filename="C:\Users\SLiV\Dropbox\Hemel en Aarde\HemelEnAarde\kaart3.png"
       inkscape:export-xdpi="182"
       inkscape:export-ydpi="182" />
    <use
       x="0"
       y="0"
       inkscape:tiled-clone-of="#path3007"
       xlink:href="#path3007"
       transform="translate(355.10202,-531.2246)"
       id="use5401"
       width="744.09448"
       height="1052.3622"
       inkscape:export-filename="C:\Users\SLiV\Dropbox\Hemel en Aarde\HemelEnAarde\kaart3.png"
       inkscape:export-xdpi="182"
       inkscape:export-ydpi="182" />
    <use
       x="0"
       y="0"
       inkscape:tiled-clone-of="#path3007"
       xlink:href="#path3007"
       transform="translate(329.09182,-486.17361)"
       id="use5403"
       width="744.09448"
       height="1052.3622"
       inkscape:export-filename="C:\Users\SLiV\Dropbox\Hemel en Aarde\HemelEnAarde\kaart3.png"
       inkscape:export-xdpi="182"
       inkscape:export-ydpi="182" />
    <use
       x="0"
       y="0"
       inkscape:tiled-clone-of="#path3007"
       xlink:href="#path3007"
       transform="translate(303.08162,-441.12262)"
       id="use5405"
       width="744.09448"
       height="1052.3622"
       inkscape:export-filename="C:\Users\SLiV\Dropbox\Hemel en Aarde\HemelEnAarde\kaart3.png"
       inkscape:export-xdpi="182"
       inkscape:export-ydpi="182" />
    <use
       x="0"
       y="0"
       inkscape:tiled-clone-of="#path3007"
       xlink:href="#path3007"
       transform="translate(277.07142,-396.07163)"
       id="use5407"
       width="744.09448"
       height="1052.3622"
       inkscape:export-filename="C:\Users\SLiV\Dropbox\Hemel en Aarde\HemelEnAarde\kaart3.png"
       inkscape:export-xdpi="182"
       inkscape:export-ydpi="182" />
    <use
       x="0"
       y="0"
       inkscape:tiled-clone-of="#path3007"
       xlink:href="#path3007"
       transform="translate(251.06121,-351.02064)"
       id="use5409"
       width="744.09448"
       height="1052.3622"
       inkscape:export-filename="C:\Users\SLiV\Dropbox\Hemel en Aarde\HemelEnAarde\kaart3.png"
       inkscape:export-xdpi="182"
       inkscape:export-ydpi="182" />
    <use
       x="0"
       y="0"
       inkscape:tiled-clone-of="#path3007"
       xlink:href="#path3007"
       transform="translate(225.05101,-305.96964)"
       id="use5411"
       width="744.09448"
       height="1052.3622"
       inkscape:export-filename="C:\Users\SLiV\Dropbox\Hemel en Aarde\HemelEnAarde\kaart3.png"
       inkscape:export-xdpi="182"
       inkscape:export-ydpi="182" />
    <use
       x="0"
       y="0"
       inkscape:tiled-clone-of="#path3007"
       xlink:href="#path3007"
       transform="translate(199.04081,-260.91865)"
       id="use5413"
       width="744.09448"
       height="1052.3622"
       inkscape:export-filename="C:\Users\SLiV\Dropbox\Hemel en Aarde\HemelEnAarde\kaart3.png"
       inkscape:export-xdpi="182"
       inkscape:export-ydpi="182" />
    <use
       x="0"
       y="0"
       inkscape:tiled-clone-of="#path3007"
       xlink:href="#path3007"
       transform="translate(173.0306,-215.86766)"
       id="use5415"
       width="744.09448"
       height="1052.3622"
       inkscape:export-filename="C:\Users\SLiV\Dropbox\Hemel en Aarde\HemelEnAarde\kaart3.png"
       inkscape:export-xdpi="182"
       inkscape:export-ydpi="182" />
    <use
       x="0"
       y="0"
       inkscape:tiled-clone-of="#path3007"
       xlink:href="#path3007"
       transform="translate(459.14283,-621.32658)"
       id="use5421"
       width="744.09448"
       height="1052.3622"
       inkscape:export-filename="C:\Users\SLiV\Dropbox\Hemel en Aarde\HemelEnAarde\kaart3.png"
       inkscape:export-xdpi="182"
       inkscape:export-ydpi="182" />
    <use
       x="0"
       y="0"
       inkscape:tiled-clone-of="#path3007"
       xlink:href="#path3007"
       transform="translate(433.13263,-576.27559)"
       id="use5423"
       width="744.09448"
       height="1052.3622"
       inkscape:export-filename="C:\Users\SLiV\Dropbox\Hemel en Aarde\HemelEnAarde\kaart3.png"
       inkscape:export-xdpi="182"
       inkscape:export-ydpi="182" />
    <use
       x="0"
       y="0"
       inkscape:tiled-clone-of="#path3007"
       xlink:href="#path3007"
       transform="translate(407.12243,-531.2246)"
       id="use5425"
       width="744.09448"
       height="1052.3622"
       inkscape:export-filename="C:\Users\SLiV\Dropbox\Hemel en Aarde\HemelEnAarde\kaart3.png"
       inkscape:export-xdpi="182"
       inkscape:export-ydpi="182" />
    <use
       x="0"
       y="0"
       inkscape:tiled-clone-of="#path3007"
       xlink:href="#path3007"
       transform="translate(381.11223,-486.17361)"
       id="use5427"
       width="744.09448"
       height="1052.3622"
       inkscape:export-filename="C:\Users\SLiV\Dropbox\Hemel en Aarde\HemelEnAarde\kaart3.png"
       inkscape:export-xdpi="182"
       inkscape:export-ydpi="182" />
    <use
       x="0"
       y="0"
       inkscape:tiled-clone-of="#path3007"
       xlink:href="#path3007"
       transform="translate(355.10202,-441.12262)"
       id="use5429"
       width="744.09448"
       height="1052.3622"
       inkscape:export-filename="C:\Users\SLiV\Dropbox\Hemel en Aarde\HemelEnAarde\kaart3.png"
       inkscape:export-xdpi="182"
       inkscape:export-ydpi="182" />
    <use
       x="0"
       y="0"
       inkscape:tiled-clone-of="#path3007"
       xlink:href="#path3007"
       transform="translate(329.09182,-396.07163)"
       id="use5431"
       width="744.09448"
       height="1052.3622"
       inkscape:export-filename="C:\Users\SLiV\Dropbox\Hemel en Aarde\HemelEnAarde\kaart3.png"
       inkscape:export-xdpi="182"
       inkscape:export-ydpi="182" />
    <use
       x="0"
       y="0"
       inkscape:tiled-clone-of="#path3007"
       xlink:href="#path3007"
       transform="translate(303.08162,-351.02064)"
       id="use5433"
       width="744.09448"
       height="1052.3622"
       inkscape:export-filename="C:\Users\SLiV\Dropbox\Hemel en Aarde\HemelEnAarde\kaart3.png"
       inkscape:export-xdpi="182"
       inkscape:export-ydpi="182" />
    <use
       x="0"
       y="0"
       inkscape:tiled-clone-of="#path3007"
       xlink:href="#path3007"
       transform="translate(277.07142,-305.96964)"
       id="use5435"
       width="744.09448"
       height="1052.3622"
       inkscape:export-filename="C:\Users\SLiV\Dropbox\Hemel en Aarde\HemelEnAarde\kaart3.png"
       inkscape:export-xdpi="182"
       inkscape:export-ydpi="182" />
    <use
       x="0"
       y="0"
       inkscape:tiled-clone-of="#path3007"
       xlink:href="#path3007"
       transform="translate(251.06121,-260.91865)"
       id="use5437"
       width="744.09448"
       height="1052.3622"
       inkscape:export-filename="C:\Users\SLiV\Dropbox\Hemel en Aarde\HemelEnAarde\kaart3.png"
       inkscape:export-xdpi="182"
       inkscape:export-ydpi="182" />
    <use
       x="0"
       y="0"
       inkscape:tiled-clone-of="#path3007"
       xlink:href="#path3007"
       transform="translate(225.05101,-215.86766)"
       id="use5439"
       width="744.09448"
       height="1052.3622"
       inkscape:export-filename="C:\Users\SLiV\Dropbox\Hemel en Aarde\HemelEnAarde\kaart3.png"
       inkscape:export-xdpi="182"
       inkscape:export-ydpi="182" />
    <use
       x="0"
       y="0"
       inkscape:tiled-clone-of="#path3007"
       xlink:href="#path3007"
       transform="translate(485.15304,-576.27559)"
       id="use5447"
       width="744.09448"
       height="1052.3622"
       inkscape:export-filename="C:\Users\SLiV\Dropbox\Hemel en Aarde\HemelEnAarde\kaart3.png"
       inkscape:export-xdpi="182"
       inkscape:export-ydpi="182" />
    <use
       x="0"
       y="0"
       inkscape:tiled-clone-of="#path3007"
       xlink:href="#path3007"
       transform="translate(459.14283,-531.2246)"
       id="use5449"
       width="744.09448"
       height="1052.3622"
       inkscape:export-filename="C:\Users\SLiV\Dropbox\Hemel en Aarde\HemelEnAarde\kaart3.png"
       inkscape:export-xdpi="182"
       inkscape:export-ydpi="182" />
    <use
       x="0"
       y="0"
       inkscape:tiled-clone-of="#path3007"
       xlink:href="#path3007"
       transform="translate(433.13263,-486.17361)"
       id="use5451"
       width="744.09448"
       height="1052.3622"
       inkscape:export-filename="C:\Users\SLiV\Dropbox\Hemel en Aarde\HemelEnAarde\kaart3.png"
       inkscape:export-xdpi="182"
       inkscape:export-ydpi="182" />
    <use
       x="0"
       y="0"
       inkscape:tiled-clone-of="#path3007"
       xlink:href="#path3007"
       transform="translate(407.12243,-441.12262)"
       id="use5453"
       width="744.09448"
       height="1052.3622"
       inkscape:export-filename="C:\Users\SLiV\Dropbox\Hemel en Aarde\HemelEnAarde\kaart3.png"
       inkscape:export-xdpi="182"
       inkscape:export-ydpi="182" />
    <use
       x="0"
       y="0"
       inkscape:tiled-clone-of="#path3007"
       xlink:href="#path3007"
       transform="translate(381.11223,-396.07163)"
       id="use5455"
       width="744.09448"
       height="1052.3622"
       inkscape:export-filename="C:\Users\SLiV\Dropbox\Hemel en Aarde\HemelEnAarde\kaart3.png"
       inkscape:export-xdpi="182"
       inkscape:export-ydpi="182" />
    <use
       x="0"
       y="0"
       inkscape:tiled-clone-of="#path3007"
       xlink:href="#path3007"
       transform="translate(355.10202,-351.02064)"
       id="use5457"
       width="744.09448"
       height="1052.3622"
       inkscape:export-filename="C:\Users\SLiV\Dropbox\Hemel en Aarde\HemelEnAarde\kaart3.png"
       inkscape:export-xdpi="182"
       inkscape:export-ydpi="182" />
    <use
       x="0"
       y="0"
       inkscape:tiled-clone-of="#path3007"
       xlink:href="#path3007"
       transform="translate(329.09182,-305.96964)"
       id="use5459"
       width="744.09448"
       height="1052.3622"
       inkscape:export-filename="C:\Users\SLiV\Dropbox\Hemel en Aarde\HemelEnAarde\kaart3.png"
       inkscape:export-xdpi="182"
       inkscape:export-ydpi="182" />
    <use
       x="0"
       y="0"
       inkscape:tiled-clone-of="#path3007"
       xlink:href="#path3007"
       transform="translate(303.08162,-260.91865)"
       id="use5461"
       width="744.09448"
       height="1052.3622"
       inkscape:export-filename="C:\Users\SLiV\Dropbox\Hemel en Aarde\HemelEnAarde\kaart3.png"
       inkscape:export-xdpi="182"
       inkscape:export-ydpi="182" />
    <use
       x="0"
       y="0"
       inkscape:tiled-clone-of="#path3007"
       xlink:href="#path3007"
       transform="translate(277.07142,-215.86766)"
       id="use5463"
       width="744.09448"
       height="1052.3622"
       inkscape:export-filename="C:\Users\SLiV\Dropbox\Hemel en Aarde\HemelEnAarde\kaart3.png"
       inkscape:export-xdpi="182"
       inkscape:export-ydpi="182" />
    <use
       x="0"
       y="0"
       inkscape:tiled-clone-of="#path3007"
       xlink:href="#path3007"
       transform="translate(511.16324,-531.2246)"
       id="use5471"
       width="744.09448"
       height="1052.3622"
       inkscape:export-filename="C:\Users\SLiV\Dropbox\Hemel en Aarde\HemelEnAarde\kaart3.png"
       inkscape:export-xdpi="182"
       inkscape:export-ydpi="182" />
    <use
       x="0"
       y="0"
       inkscape:tiled-clone-of="#path3007"
       xlink:href="#path3007"
       transform="translate(485.15304,-486.17361)"
       id="use5473"
       width="744.09448"
       height="1052.3622"
       inkscape:export-filename="C:\Users\SLiV\Dropbox\Hemel en Aarde\HemelEnAarde\kaart3.png"
       inkscape:export-xdpi="182"
       inkscape:export-ydpi="182" />
    <use
       x="0"
       y="0"
       inkscape:tiled-clone-of="#path3007"
       xlink:href="#path3007"
       transform="translate(459.14283,-441.12262)"
       id="use5475"
       width="744.09448"
       height="1052.3622"
       inkscape:export-filename="C:\Users\SLiV\Dropbox\Hemel en Aarde\HemelEnAarde\kaart3.png"
       inkscape:export-xdpi="182"
       inkscape:export-ydpi="182" />
    <use
       x="0"
       y="0"
       inkscape:tiled-clone-of="#path3007"
       xlink:href="#path3007"
       transform="translate(433.13263,-396.07163)"
       id="use5477"
       width="744.09448"
       height="1052.3622"
       inkscape:export-filename="C:\Users\SLiV\Dropbox\Hemel en Aarde\HemelEnAarde\kaart3.png"
       inkscape:export-xdpi="182"
       inkscape:export-ydpi="182" />
    <use
       x="0"
       y="0"
       inkscape:tiled-clone-of="#path3007"
       xlink:href="#path3007"
       transform="translate(407.12243,-351.02064)"
       id="use5479"
       width="744.09448"
       height="1052.3622"
       inkscape:export-filename="C:\Users\SLiV\Dropbox\Hemel en Aarde\HemelEnAarde\kaart3.png"
       inkscape:export-xdpi="182"
       inkscape:export-ydpi="182" />
    <use
       x="0"
       y="0"
       inkscape:tiled-clone-of="#path3007"
       xlink:href="#path3007"
       transform="translate(381.11223,-305.96964)"
       id="use5481"
       width="744.09448"
       height="1052.3622"
       inkscape:export-filename="C:\Users\SLiV\Dropbox\Hemel en Aarde\HemelEnAarde\kaart3.png"
       inkscape:export-xdpi="182"
       inkscape:export-ydpi="182" />
    <use
       x="0"
       y="0"
       inkscape:tiled-clone-of="#path3007"
       xlink:href="#path3007"
       transform="translate(355.10202,-260.91865)"
       id="use5483"
       width="744.09448"
       height="1052.3622"
       inkscape:export-filename="C:\Users\SLiV\Dropbox\Hemel en Aarde\HemelEnAarde\kaart3.png"
       inkscape:export-xdpi="182"
       inkscape:export-ydpi="182" />
    <use
       x="0"
       y="0"
       inkscape:tiled-clone-of="#path3007"
       xlink:href="#path3007"
       transform="translate(329.09182,-215.86766)"
       id="use5485"
       width="744.09448"
       height="1052.3622"
       inkscape:export-filename="C:\Users\SLiV\Dropbox\Hemel en Aarde\HemelEnAarde\kaart3.png"
       inkscape:export-xdpi="182"
       inkscape:export-ydpi="182" />
    <use
       x="0"
       y="0"
       inkscape:tiled-clone-of="#path3007"
       xlink:href="#path3007"
       transform="translate(537.17344,-486.17361)"
       id="use5491"
       width="744.09448"
       height="1052.3622"
       inkscape:export-filename="C:\Users\SLiV\Dropbox\Hemel en Aarde\HemelEnAarde\kaart3.png"
       inkscape:export-xdpi="182"
       inkscape:export-ydpi="182" />
    <use
       x="0"
       y="0"
       inkscape:tiled-clone-of="#path3007"
       xlink:href="#path3007"
       transform="translate(511.16324,-441.12262)"
       id="use5493"
       width="744.09448"
       height="1052.3622"
       inkscape:export-filename="C:\Users\SLiV\Dropbox\Hemel en Aarde\HemelEnAarde\kaart3.png"
       inkscape:export-xdpi="182"
       inkscape:export-ydpi="182" />
    <use
       x="0"
       y="0"
       inkscape:tiled-clone-of="#path3007"
       xlink:href="#path3007"
       transform="translate(485.15304,-396.07163)"
       id="use5495"
       width="744.09448"
       height="1052.3622"
       inkscape:export-filename="C:\Users\SLiV\Dropbox\Hemel en Aarde\HemelEnAarde\kaart3.png"
       inkscape:export-xdpi="182"
       inkscape:export-ydpi="182" />
    <use
       x="0"
       y="0"
       inkscape:tiled-clone-of="#path3007"
       xlink:href="#path3007"
       transform="translate(459.14283,-351.02064)"
       id="use5497"
       width="744.09448"
       height="1052.3622"
       inkscape:export-filename="C:\Users\SLiV\Dropbox\Hemel en Aarde\HemelEnAarde\kaart3.png"
       inkscape:export-xdpi="182"
       inkscape:export-ydpi="182" />
    <use
       x="0"
       y="0"
       inkscape:tiled-clone-of="#path3007"
       xlink:href="#path3007"
       transform="translate(433.13263,-305.96964)"
       id="use5499"
       width="744.09448"
       height="1052.3622"
       inkscape:export-filename="C:\Users\SLiV\Dropbox\Hemel en Aarde\HemelEnAarde\kaart3.png"
       inkscape:export-xdpi="182"
       inkscape:export-ydpi="182" />
    <use
       x="0"
       y="0"
       inkscape:tiled-clone-of="#path3007"
       xlink:href="#path3007"
       transform="translate(407.12243,-260.91865)"
       id="use5501"
       width="744.09448"
       height="1052.3622"
       inkscape:export-filename="C:\Users\SLiV\Dropbox\Hemel en Aarde\HemelEnAarde\kaart3.png"
       inkscape:export-xdpi="182"
       inkscape:export-ydpi="182" />
    <use
       x="0"
       y="0"
       inkscape:tiled-clone-of="#path3007"
       xlink:href="#path3007"
       transform="translate(381.11223,-215.86766)"
       id="use5503"
       width="744.09448"
       height="1052.3622"
       inkscape:export-filename="C:\Users\SLiV\Dropbox\Hemel en Aarde\HemelEnAarde\kaart3.png"
       inkscape:export-xdpi="182"
       inkscape:export-ydpi="182" />
    <use
       x="0"
       y="0"
       inkscape:tiled-clone-of="#path3007"
       xlink:href="#path3007"
       transform="translate(537.17344,-396.07163)"
       id="use5509"
       width="744.09448"
       height="1052.3622"
       inkscape:export-filename="C:\Users\SLiV\Dropbox\Hemel en Aarde\HemelEnAarde\kaart3.png"
       inkscape:export-xdpi="182"
       inkscape:export-ydpi="182" />
    <use
       x="0"
       y="0"
       inkscape:tiled-clone-of="#path3007"
       xlink:href="#path3007"
       transform="translate(511.16324,-351.02064)"
       id="use5511"
       width="744.09448"
       height="1052.3622"
       inkscape:export-filename="C:\Users\SLiV\Dropbox\Hemel en Aarde\HemelEnAarde\kaart3.png"
       inkscape:export-xdpi="182"
       inkscape:export-ydpi="182" />
    <use
       x="0"
       y="0"
       inkscape:tiled-clone-of="#path3007"
       xlink:href="#path3007"
       transform="translate(485.15304,-305.96964)"
       id="use5513"
       width="744.09448"
       height="1052.3622"
       inkscape:export-filename="C:\Users\SLiV\Dropbox\Hemel en Aarde\HemelEnAarde\kaart3.png"
       inkscape:export-xdpi="182"
       inkscape:export-ydpi="182" />
    <use
       x="0"
       y="0"
       inkscape:tiled-clone-of="#path3007"
       xlink:href="#path3007"
       transform="translate(459.14283,-260.91865)"
       id="use5515"
       width="744.09448"
       height="1052.3622"
       inkscape:export-filename="C:\Users\SLiV\Dropbox\Hemel en Aarde\HemelEnAarde\kaart3.png"
       inkscape:export-xdpi="182"
       inkscape:export-ydpi="182" />
    <use
       x="0"
       y="0"
       inkscape:tiled-clone-of="#path3007"
       xlink:href="#path3007"
       transform="translate(433.13263,-215.86766)"
       id="use5517"
       width="744.09448"
       height="1052.3622"
       inkscape:export-filename="C:\Users\SLiV\Dropbox\Hemel en Aarde\HemelEnAarde\kaart3.png"
       inkscape:export-xdpi="182"
       inkscape:export-ydpi="182" />
  </g>
  <g
     inkscape:groupmode="layer"
     id="layer5"
     inkscape:label="Forest"
     style="display:inline">
    <path
       sodipodi:type="star"
       style="fill:#b9ddb7;fill-opacity:1;stroke:#494949;stroke-opacity:1"
       id="path3007-7"
       sodipodi:sides="6"
       sodipodi:cx="47.142857"
       sodipodi:cy="42.362183"
       sodipodi:r1="30.033995"
       sodipodi:r2="26.010202"
       sodipodi:arg1="0.52359878"
       sodipodi:arg2="1.0471976"
       inkscape:flatsided="true"
       inkscape:rounded="0"
       inkscape:randomized="0"
       d="M 73.153059,57.37918 47.142856,72.396177 21.132654,57.37918 l 0,-30.033995 26.010203,-15.016997 26.010202,15.016997 z"
       inkscape:tile-cx="47.142857"
       inkscape:tile-cy="42.362183"
       inkscape:tile-w="52.020405"
       inkscape:tile-h="60.067989"
       inkscape:tile-x0="21.132654"
       inkscape:tile-y0="12.328188"
       transform="translate(83.453884,796.75185)" />
    <use
       x="0"
       y="0"
       inkscape:tiled-clone-of="#path3007-7"
       xlink:href="#path3007-7"
       transform="translate(129.04081,-698.46944)"
       id="use5301-5"
       width="744.09448"
       height="1052.3622"
       inkscape:export-filename="C:\Users\SLiV\Dropbox\Hemel en Aarde\HemelEnAarde\kaart3.png"
       inkscape:export-xdpi="182"
       inkscape:export-ydpi="182" />
    <use
       x="0"
       y="0"
       inkscape:tiled-clone-of="#path3007-7"
       xlink:href="#path3007-7"
       transform="translate(103.0306,-653.41845)"
       id="use5303-8"
       width="744.09448"
       height="1052.3622"
       inkscape:export-filename="C:\Users\SLiV\Dropbox\Hemel en Aarde\HemelEnAarde\kaart3.png"
       inkscape:export-xdpi="182"
       inkscape:export-ydpi="182" />
    <use
       x="0"
       y="0"
       inkscape:tiled-clone-of="#path3007-7"
       xlink:href="#path3007-7"
       transform="translate(51.127746,-562.92546)"
       id="use5307-8"
       width="744.09448"
       height="1052.3622"
       inkscape:export-filename="C:\Users\SLiV\Dropbox\Hemel en Aarde\HemelEnAarde\kaart3.png"
       inkscape:export-xdpi="182"
       inkscape:export-ydpi="182" />
    <use
       x="0"
       y="0"
       inkscape:tiled-clone-of="#path3007-7"
       xlink:href="#path3007-7"
       transform="translate(181.06121,-698.46944)"
       id="use5325-1"
       width="744.09448"
       height="1052.3622"
       inkscape:export-filename="C:\Users\SLiV\Dropbox\Hemel en Aarde\HemelEnAarde\kaart3.png"
       inkscape:export-xdpi="182"
       inkscape:export-ydpi="182" />
    <use
       x="0"
       y="0"
       inkscape:tiled-clone-of="#path3007-7"
       xlink:href="#path3007-7"
       transform="translate(155.05101,-653.41845)"
       id="use5327-0"
       width="744.09448"
       height="1052.3622"
       inkscape:export-filename="C:\Users\SLiV\Dropbox\Hemel en Aarde\HemelEnAarde\kaart3.png"
       inkscape:export-xdpi="182"
       inkscape:export-ydpi="182" />
    <use
       x="0"
       y="0"
       inkscape:tiled-clone-of="#path3007-7"
       xlink:href="#path3007-7"
       transform="translate(103.14815,-562.92546)"
       id="use5331-1"
       width="744.09448"
       height="1052.3622"
       inkscape:export-filename="C:\Users\SLiV\Dropbox\Hemel en Aarde\HemelEnAarde\kaart3.png"
       inkscape:export-xdpi="182"
       inkscape:export-ydpi="182" />
    <use
       x="0"
       y="0"
       inkscape:tiled-clone-of="#path3007-7"
       xlink:href="#path3007-7"
       transform="translate(51.127746,-472.82348)"
       id="use5335-9"
       width="744.09448"
       height="1052.3622"
       inkscape:export-filename="C:\Users\SLiV\Dropbox\Hemel en Aarde\HemelEnAarde\kaart3.png"
       inkscape:export-xdpi="182"
       inkscape:export-ydpi="182" />
    <use
       x="0"
       y="0"
       inkscape:tiled-clone-of="#path3007-7"
       xlink:href="#path3007-7"
       transform="translate(155.16856,-382.72149)"
       id="use5337-2"
       width="744.09448"
       height="1052.3622"
       inkscape:export-filename="C:\Users\SLiV\Dropbox\Hemel en Aarde\HemelEnAarde\kaart3.png"
       inkscape:export-xdpi="182"
       inkscape:export-ydpi="182" />
    <use
       x="0"
       y="0"
       inkscape:tiled-clone-of="#path3007-7"
       xlink:href="#path3007-7"
       transform="translate(77.137946,-427.77249)"
       id="use5361-2"
       width="744.09448"
       height="1052.3622"
       inkscape:export-filename="C:\Users\SLiV\Dropbox\Hemel en Aarde\HemelEnAarde\kaart3.png"
       inkscape:export-xdpi="182"
       inkscape:export-ydpi="182" />
    <use
       x="0"
       y="0"
       inkscape:tiled-clone-of="#path3007-7"
       xlink:href="#path3007-7"
       transform="translate(233.08162,-608.36746)"
       id="use5377-7"
       width="744.09448"
       height="1052.3622"
       inkscape:export-filename="C:\Users\SLiV\Dropbox\Hemel en Aarde\HemelEnAarde\kaart3.png"
       inkscape:export-xdpi="182"
       inkscape:export-ydpi="182" />
    <use
       x="0"
       y="0"
       inkscape:tiled-clone-of="#path3007-7"
       xlink:href="#path3007-7"
       transform="translate(129.04081,-427.91096)"
       id="use5385-0"
       width="744.09448"
       height="1052.3622"
       inkscape:export-filename="C:\Users\SLiV\Dropbox\Hemel en Aarde\HemelEnAarde\kaart3.png"
       inkscape:export-xdpi="182"
       inkscape:export-ydpi="182" />
    <use
       x="0"
       y="0"
       inkscape:tiled-clone-of="#path3007-7"
       xlink:href="#path3007-7"
       transform="translate(285.10202,-608.36746)"
       id="use5401-2"
       width="744.09448"
       height="1052.3622"
       inkscape:export-filename="C:\Users\SLiV\Dropbox\Hemel en Aarde\HemelEnAarde\kaart3.png"
       inkscape:export-xdpi="182"
       inkscape:export-ydpi="182" />
    <use
       x="0"
       y="0"
       inkscape:tiled-clone-of="#path3007-7"
       xlink:href="#path3007-7"
       transform="translate(363.13263,-653.41845)"
       id="use5423-0"
       width="744.09448"
       height="1052.3622"
       inkscape:export-filename="C:\Users\SLiV\Dropbox\Hemel en Aarde\HemelEnAarde\kaart3.png"
       inkscape:export-xdpi="182"
       inkscape:export-ydpi="182" />
    <use
       x="0"
       y="0"
       inkscape:tiled-clone-of="#path3007-7"
       xlink:href="#path3007-7"
       transform="translate(337.12243,-608.36746)"
       id="use5425-3"
       width="744.09448"
       height="1052.3622"
       inkscape:export-filename="C:\Users\SLiV\Dropbox\Hemel en Aarde\HemelEnAarde\kaart3.png"
       inkscape:export-xdpi="182"
       inkscape:export-ydpi="182" />
    <use
       x="0"
       y="0"
       inkscape:tiled-clone-of="#path3007-7"
       xlink:href="#path3007-7"
       transform="translate(311.11223,-383.1125)"
       id="use5481-5"
       width="744.09448"
       height="1052.3622"
       inkscape:export-filename="C:\Users\SLiV\Dropbox\Hemel en Aarde\HemelEnAarde\kaart3.png"
       inkscape:export-xdpi="182"
       inkscape:export-ydpi="182" />
    <use
       x="0"
       y="0"
       inkscape:tiled-clone-of="#path3007-7"
       xlink:href="#path3007-7"
       transform="translate(285.10202,-338.06151)"
       id="use5483-6"
       width="744.09448"
       height="1052.3622"
       inkscape:export-filename="C:\Users\SLiV\Dropbox\Hemel en Aarde\HemelEnAarde\kaart3.png"
       inkscape:export-xdpi="182"
       inkscape:export-ydpi="182" />
    <use
       x="0"
       y="0"
       inkscape:tiled-clone-of="#path3007-7"
       xlink:href="#path3007-7"
       transform="translate(363.13263,-383.1125)"
       id="use5499-8"
       width="744.09448"
       height="1052.3622"
       inkscape:export-filename="C:\Users\SLiV\Dropbox\Hemel en Aarde\HemelEnAarde\kaart3.png"
       inkscape:export-xdpi="182"
       inkscape:export-ydpi="182" />
    <use
       x="0"
       y="0"
       inkscape:tiled-clone-of="#path3007-7"
       xlink:href="#path3007-7"
       transform="translate(337.12243,-338.06151)"
       id="use5501-2"
       width="744.09448"
       height="1052.3622"
       inkscape:export-filename="C:\Users\SLiV\Dropbox\Hemel en Aarde\HemelEnAarde\kaart3.png"
       inkscape:export-xdpi="182"
       inkscape:export-ydpi="182" />
    <use
       x="0"
       y="0"
       inkscape:tiled-clone-of="#path3007-7"
       xlink:href="#path3007-7"
       transform="translate(389.14283,-338.06151)"
       id="use5515-0"
       width="744.09448"
       height="1052.3622"
       inkscape:export-filename="C:\Users\SLiV\Dropbox\Hemel en Aarde\HemelEnAarde\kaart3.png"
       inkscape:export-xdpi="182"
       inkscape:export-ydpi="182" />
  </g>
  <g
     inkscape:groupmode="layer"
     id="layer6"
     inkscape:label="Mountain"
     style="display:inline">
    <path
       sodipodi:type="star"
       style="fill:#ccc19a;fill-opacity:1;stroke:#494949;stroke-opacity:1"
       id="path3007-72"
       sodipodi:sides="6"
       sodipodi:cx="47.142857"
       sodipodi:cy="42.362183"
       sodipodi:r1="30.033995"
       sodipodi:r2="26.010202"
       sodipodi:arg1="0.52359878"
       sodipodi:arg2="1.0471976"
       inkscape:flatsided="true"
       inkscape:rounded="0"
       inkscape:randomized="0"
       d="M 73.153059,57.37918 47.142856,72.396177 21.132654,57.37918 l 0,-30.033995 26.010203,-15.016997 26.010202,15.016997 z"
       inkscape:tile-cx="47.142857"
       inkscape:tile-cy="42.362183"
       inkscape:tile-w="52.020405"
       inkscape:tile-h="60.067989"
       inkscape:tile-x0="21.132654"
       inkscape:tile-y0="12.328188"
       transform="translate(157.08196,793.38574)" />
    <use
       x="0"
       y="0"
       inkscape:tiled-clone-of="#path3007-72"
       xlink:href="#path3007-72"
       transform="translate(-48.441673,-604.46066)"
       id="use5281-4"
       width="744.09448"
       height="1052.3622"
       inkscape:export-filename="C:\Users\SLiV\Dropbox\Hemel en Aarde\HemelEnAarde\kaart3.png"
       inkscape:export-xdpi="182"
       inkscape:export-ydpi="182" />
    <use
       x="0"
       y="0"
       inkscape:tiled-clone-of="#path3007-72"
       xlink:href="#path3007-72"
       transform="translate(-74.451866,-559.40967)"
       id="use5283-4"
       width="744.09448"
       height="1052.3622"
       inkscape:export-filename="C:\Users\SLiV\Dropbox\Hemel en Aarde\HemelEnAarde\kaart3.png"
       inkscape:export-xdpi="182"
       inkscape:export-ydpi="182" />
    <use
       x="0"
       y="0"
       inkscape:tiled-clone-of="#path3007-72"
       xlink:href="#path3007-72"
       transform="translate(-48.510536,-424.40638)"
       id="use5309-73"
       width="744.09448"
       height="1052.3622"
       inkscape:export-filename="C:\Users\SLiV\Dropbox\Hemel en Aarde\HemelEnAarde\kaart3.png"
       inkscape:export-xdpi="182"
       inkscape:export-ydpi="182" />
    <use
       x="0"
       y="0"
       inkscape:tiled-clone-of="#path3007-72"
       xlink:href="#path3007-72"
       transform="translate(3.50987,-694.71232)"
       id="use5311-9"
       width="744.09448"
       height="1052.3622"
       inkscape:export-filename="C:\Users\SLiV\Dropbox\Hemel en Aarde\HemelEnAarde\kaart3.png"
       inkscape:export-xdpi="182"
       inkscape:export-ydpi="182" />
    <use
       x="0"
       y="0"
       inkscape:tiled-clone-of="#path3007-72"
       xlink:href="#path3007-72"
       transform="translate(-22.431462,-379.2057)"
       id="use5363-9"
       width="744.09448"
       height="1052.3622"
       inkscape:export-filename="C:\Users\SLiV\Dropbox\Hemel en Aarde\HemelEnAarde\kaart3.png"
       inkscape:export-xdpi="182"
       inkscape:export-ydpi="182" />
    <use
       x="0"
       y="0"
       inkscape:tiled-clone-of="#path3007-72"
       xlink:href="#path3007-72"
       transform="translate(3.5787385,-334.15471)"
       id="use5389-9"
       width="744.09448"
       height="1052.3622"
       inkscape:export-filename="C:\Users\SLiV\Dropbox\Hemel en Aarde\HemelEnAarde\kaart3.png"
       inkscape:export-xdpi="182"
       inkscape:export-ydpi="182" />
  </g>
  <g
     inkscape:groupmode="layer"
     id="layer7"
     inkscape:label="Sand"
     style="display:inline">
    <path
       sodipodi:type="star"
       style="fill:#f0eea7;fill-opacity:1;stroke:#494949;stroke-opacity:1"
       id="path3007-4"
       sodipodi:sides="6"
       sodipodi:cx="47.142857"
       sodipodi:cy="42.362183"
       sodipodi:r1="30.033995"
       sodipodi:r2="26.010202"
       sodipodi:arg1="0.52359878"
       sodipodi:arg2="1.0471976"
       inkscape:flatsided="true"
       inkscape:rounded="0"
       inkscape:randomized="0"
       d="M 73.153059,57.37918 47.142856,72.396177 21.132654,57.37918 l 0,-30.033995 26.010203,-15.016997 26.010202,15.016997 z"
       inkscape:tile-cx="47.142857"
       inkscape:tile-cy="42.362183"
       inkscape:tile-w="52.020405"
       inkscape:tile-h="60.067989"
       inkscape:tile-x0="21.132654"
       inkscape:tile-y0="12.328188"
       transform="translate(232.15158,792.06753)" />
    <use
       x="0"
       y="0"
       inkscape:tiled-clone-of="#path3007-4"
       xlink:href="#path3007-4"
       transform="translate(240.63454,-603.43059)"
       id="use5449-1"
       width="744.09448"
       height="1052.3622"
       inkscape:export-filename="C:\Users\SLiV\Dropbox\Hemel en Aarde\HemelEnAarde\kaart3.png"
       inkscape:export-xdpi="182"
       inkscape:export-ydpi="182" />
    <use
       x="0"
       y="0"
       inkscape:tiled-clone-of="#path3007-4"
       xlink:href="#path3007-4"
       transform="translate(292.65495,-603.43059)"
       id="use5471-9"
       width="744.09448"
       height="1052.3622"
       inkscape:export-filename="C:\Users\SLiV\Dropbox\Hemel en Aarde\HemelEnAarde\kaart3.png"
       inkscape:export-xdpi="182"
       inkscape:export-ydpi="182" />
    <use
       x="0"
       y="0"
       inkscape:tiled-clone-of="#path3007-4"
       xlink:href="#path3007-4"
       transform="translate(266.64475,-558.3796)"
       id="use5473-0"
       width="744.09448"
       height="1052.3622"
       inkscape:export-filename="C:\Users\SLiV\Dropbox\Hemel en Aarde\HemelEnAarde\kaart3.png"
       inkscape:export-xdpi="182"
       inkscape:export-ydpi="182" />
    <use
       x="0"
       y="0"
       inkscape:tiled-clone-of="#path3007-4"
       xlink:href="#path3007-4"
       transform="translate(266.64475,-468.27762)"
       id="use5495-1"
       width="744.09448"
       height="1052.3622"
       inkscape:export-filename="C:\Users\SLiV\Dropbox\Hemel en Aarde\HemelEnAarde\kaart3.png"
       inkscape:export-xdpi="182"
       inkscape:export-ydpi="182" />
    <use
       x="0"
       y="0"
       inkscape:tiled-clone-of="#path3007-4"
       xlink:href="#path3007-4"
       transform="translate(292.65495,-423.22663)"
       id="use5511-7"
       width="744.09448"
       height="1052.3622"
       inkscape:export-filename="C:\Users\SLiV\Dropbox\Hemel en Aarde\HemelEnAarde\kaart3.png"
       inkscape:export-xdpi="182"
       inkscape:export-ydpi="182" />
    <use
       style="display:inline"
       x="0"
       y="0"
       inkscape:tiled-clone-of="#path3007-4"
       xlink:href="#path3007-4"
       transform="translate(318.59329,-468.13916)"
       id="use5511-7-9"
       width="744.09448"
       height="1052.3622"
       inkscape:export-filename="C:\Users\SLiV\Dropbox\Hemel en Aarde\HemelEnAarde\kaart3.png"
       inkscape:export-xdpi="182"
       inkscape:export-ydpi="182" />
  </g>
  <g
     inkscape:groupmode="layer"
     id="layer4"
     inkscape:label="River"
     style="display:inline">
    <path
       sodipodi:type="star"
       style="fill:#adddf1;fill-opacity:1;stroke:#393939;stroke-opacity:1;stroke-width:2;stroke-miterlimit:4;stroke-dasharray:none"
       id="path3007-8"
       sodipodi:sides="6"
       sodipodi:cx="47.142857"
       sodipodi:cy="42.362183"
       sodipodi:r1="30.033995"
       sodipodi:r2="26.010202"
       sodipodi:arg1="0.52359878"
       sodipodi:arg2="1.0471976"
       inkscape:flatsided="true"
       inkscape:rounded="0"
       inkscape:randomized="0"
       d="M 73.153059,57.37918 47.142856,72.396177 21.132654,57.37918 l 0,-30.033995 26.010203,-15.016997 26.010202,15.016997 z"
       inkscape:tile-cx="47.142857"
       inkscape:tile-cy="42.362183"
       inkscape:tile-w="52.020405"
       inkscape:tile-h="60.067989"
       inkscape:tile-x0="21.132654"
       inkscape:tile-y0="12.328188"
       transform="translate(11.999931,801.74703)" />
    <use
       x="0"
       y="0"
       inkscape:tiled-clone-of="#path3007-8"
       xlink:href="#path3007-8"
       transform="translate(148.53563,-522.94498)"
       id="use5333-5"
       width="744.09448"
       height="1052.3622"
       style="fill:#86e2ec;fill-opacity:0.22872338"
       inkscape:export-filename="C:\Users\SLiV\Dropbox\Hemel en Aarde\HemelEnAarde\kaart3.png"
       inkscape:export-xdpi="182"
       inkscape:export-ydpi="182" />
    <use
       x="0"
       y="0"
       inkscape:tiled-clone-of="#path3007-8"
       xlink:href="#path3007-8"
       transform="translate(174.54583,-477.89399)"
       id="use5359-5"
       width="744.09448"
       height="1052.3622"
       style="fill:#86e2ec;fill-opacity:0.22872338"
       inkscape:export-filename="C:\Users\SLiV\Dropbox\Hemel en Aarde\HemelEnAarde\kaart3.png"
       inkscape:export-xdpi="182"
       inkscape:export-ydpi="182" />
    <use
       x="0"
       y="0"
       inkscape:tiled-clone-of="#path3007-8"
       xlink:href="#path3007-8"
       transform="translate(252.57644,-522.94498)"
       id="use5381-29"
       width="744.09448"
       height="1052.3622"
       style="fill:#86e2ec;fill-opacity:0.22872338"
       inkscape:export-filename="C:\Users\SLiV\Dropbox\Hemel en Aarde\HemelEnAarde\kaart3.png"
       inkscape:export-xdpi="182"
       inkscape:export-ydpi="182" />
    <use
       x="0"
       y="0"
       inkscape:tiled-clone-of="#path3007-8"
       xlink:href="#path3007-8"
       transform="translate(226.56624,-477.89399)"
       id="use5383-8"
       width="744.09448"
       height="1052.3622"
       style="fill:#86e2ec;fill-opacity:0.22872338"
       inkscape:export-filename="C:\Users\SLiV\Dropbox\Hemel en Aarde\HemelEnAarde\kaart3.png"
       inkscape:export-xdpi="182"
       inkscape:export-ydpi="182" />
    <use
       x="0"
       y="0"
       inkscape:tiled-clone-of="#path3007-8"
       xlink:href="#path3007-8"
       transform="translate(304.59685,-522.94498)"
       id="use5405-4"
       width="744.09448"
       height="1052.3622"
       style="fill:#86e2ec;fill-opacity:0.22872338"
       inkscape:export-filename="C:\Users\SLiV\Dropbox\Hemel en Aarde\HemelEnAarde\kaart3.png"
       inkscape:export-xdpi="182"
       inkscape:export-ydpi="182" />
    <use
       x="0"
       y="0"
       inkscape:tiled-clone-of="#path3007-8"
       xlink:href="#path3007-8"
       transform="translate(382.62746,-567.99597)"
       id="use5427-7"
       width="744.09448"
       height="1052.3622"
       style="fill:#86e2ec;fill-opacity:0.22872338"
       inkscape:export-filename="C:\Users\SLiV\Dropbox\Hemel en Aarde\HemelEnAarde\kaart3.png"
       inkscape:export-xdpi="182"
       inkscape:export-ydpi="182" />
    <use
       x="0"
       y="0"
       inkscape:tiled-clone-of="#path3007-8"
       xlink:href="#path3007-8"
       transform="translate(356.61725,-522.94498)"
       id="use5429-2"
       width="744.09448"
       height="1052.3622"
       style="fill:#86e2ec;fill-opacity:0.22872338"
       inkscape:export-filename="C:\Users\SLiV\Dropbox\Hemel en Aarde\HemelEnAarde\kaart3.png"
       inkscape:export-xdpi="182"
       inkscape:export-ydpi="182" />
    <use
       x="0"
       y="0"
       inkscape:tiled-clone-of="#path3007-8"
       xlink:href="#path3007-8"
       transform="translate(434.64786,-567.99597)"
       id="use5451-2"
       width="744.09448"
       height="1052.3622"
       style="fill:#86e2ec;fill-opacity:0.22872338"
       inkscape:export-filename="C:\Users\SLiV\Dropbox\Hemel en Aarde\HemelEnAarde\kaart3.png"
       inkscape:export-xdpi="182"
       inkscape:export-ydpi="182" />
    <use
       x="0"
       y="0"
       inkscape:tiled-clone-of="#path3007-8"
       xlink:href="#path3007-8"
       transform="translate(460.65806,-522.94498)"
       id="use5475-0"
       width="744.09448"
       height="1052.3622"
       style="fill:#86e2ec;fill-opacity:0.22872338"
       inkscape:export-filename="C:\Users\SLiV\Dropbox\Hemel en Aarde\HemelEnAarde\kaart3.png"
       inkscape:export-xdpi="182"
       inkscape:export-ydpi="182" />
    <use
       x="0"
       y="0"
       inkscape:tiled-clone-of="#path3007-8"
       xlink:href="#path3007-8"
       transform="translate(96.571493,-522.86965)"
       id="use5491-6"
       width="744.09448"
       height="1052.3622"
       style="fill:#86e2ec;fill-opacity:0.22872338"
       inkscape:export-filename="C:\Users\SLiV\Dropbox\Hemel en Aarde\HemelEnAarde\kaart3.png"
       inkscape:export-xdpi="182"
       inkscape:export-ydpi="182" />
    <use
       x="0"
       y="0"
       inkscape:tiled-clone-of="#path3007-8"
       xlink:href="#path3007-8"
       transform="translate(512.67847,-522.94498)"
       id="use5493-7"
       width="744.09448"
       height="1052.3622"
       style="fill:#86e2ec;fill-opacity:0.22872338"
       inkscape:export-filename="C:\Users\SLiV\Dropbox\Hemel en Aarde\HemelEnAarde\kaart3.png"
       inkscape:export-xdpi="182"
       inkscape:export-ydpi="182" />
    <use
       x="0"
       y="0"
       inkscape:tiled-clone-of="#path3007-8"
       xlink:href="#path3007-8"
       transform="translate(538.74494,-567.92064)"
       id="use5509-8"
       width="744.09448"
       height="1052.3622"
       style="fill:#86e2ec;fill-opacity:0.22872338"
       inkscape:export-filename="C:\Users\SLiV\Dropbox\Hemel en Aarde\HemelEnAarde\kaart3.png"
       inkscape:export-xdpi="182"
       inkscape:export-ydpi="182" />
    <use
       x="0"
       y="0"
       inkscape:tiled-clone-of="#path3007-8"
       xlink:href="#path3007-8"
       transform="translate(70.561298,-477.81866)"
       id="use5491-6-3"
       width="744.09448"
       height="1052.3622"
       style="display:inline;fill:#86e2ec;fill-opacity:0.22872338"
       inkscape:export-filename="C:\Users\SLiV\Dropbox\Hemel en Aarde\HemelEnAarde\kaart3.png"
       inkscape:export-xdpi="182"
       inkscape:export-ydpi="182" />
  </g>
  <g
     inkscape:groupmode="layer"
     id="layer2"
     inkscape:label="Garden"
     style="display:inline">
    <path
       sodipodi:type="star"
       style="fill:#53c141;fill-opacity:1;stroke:#393939;stroke-width:2;stroke-miterlimit:4;stroke-opacity:1;stroke-dasharray:none"
       id="path3007-5"
       sodipodi:sides="6"
       sodipodi:cx="47.142857"
       sodipodi:cy="42.362183"
       sodipodi:r1="30.033995"
       sodipodi:r2="26.010202"
       sodipodi:arg1="0.52359878"
       sodipodi:arg2="1.0471976"
       inkscape:flatsided="true"
       inkscape:rounded="0"
       inkscape:randomized="0"
       d="M 73.153059,57.37918 47.142856,72.396177 21.132654,57.37918 l 0,-30.033995 26.010203,-15.016997 26.010202,15.016997 z"
       inkscape:tile-cx="47.142857"
       inkscape:tile-cy="42.362183"
       inkscape:tile-w="52.020405"
       inkscape:tile-h="60.067989"
       inkscape:tile-x0="21.132654"
       inkscape:tile-y0="12.328188"
       transform="translate(83.556138,718.90306)" />
    <use
       x="0"
       y="0"
       inkscape:tiled-clone-of="#path3007-5"
       xlink:href="#path3007-5"
       transform="translate(207.07142,-485.10217)"
       id="use5379-5"
       width="744.09448"
       height="1052.3622"
       inkscape:export-filename="C:\Users\SLiV\Dropbox\Hemel en Aarde\HemelEnAarde\kaart3.png"
       inkscape:export-xdpi="182"
       inkscape:export-ydpi="182" />
    <use
       x="0"
       y="0"
       inkscape:tiled-clone-of="#path3007-5"
       xlink:href="#path3007-5"
       transform="translate(259.09182,-485.10217)"
       id="use5403-6"
       width="744.09448"
       height="1052.3622"
       inkscape:export-filename="C:\Users\SLiV\Dropbox\Hemel en Aarde\HemelEnAarde\kaart3.png"
       inkscape:export-xdpi="182"
       inkscape:export-ydpi="182" />
    <use
       x="0"
       y="0"
       inkscape:tiled-clone-of="#path3007-5"
       xlink:href="#path3007-5"
       transform="translate(207.07142,-395.00019)"
       id="use5407-2"
       width="744.09448"
       height="1052.3622"
       inkscape:export-filename="C:\Users\SLiV\Dropbox\Hemel en Aarde\HemelEnAarde\kaart3.png"
       inkscape:export-xdpi="182"
       inkscape:export-ydpi="182" />
    <use
       x="0"
       y="0"
       inkscape:tiled-clone-of="#path3007-5"
       xlink:href="#path3007-5"
       transform="translate(259.09182,-395.00019)"
       id="use5431-2"
       width="744.09448"
       height="1052.3622"
       inkscape:export-filename="C:\Users\SLiV\Dropbox\Hemel en Aarde\HemelEnAarde\kaart3.png"
       inkscape:export-xdpi="182"
       inkscape:export-ydpi="182" />
  </g>
  <g
     inkscape:groupmode="layer"
     id="layer10"
     inkscape:label="Garden 2"
     style="display:inline">
    <path
       sodipodi:type="star"
       style="display:inline;fill:#679dd6;fill-opacity:1;stroke:#393939;stroke-width:2;stroke-miterlimit:4;stroke-dasharray:none;stroke-opacity:1"
       id="path3007-5-2"
       sodipodi:sides="6"
       sodipodi:cx="47.142857"
       sodipodi:cy="42.362183"
       sodipodi:r1="30.033995"
       sodipodi:r2="26.010202"
       sodipodi:arg1="0.52359878"
       sodipodi:arg2="1.0471976"
       inkscape:flatsided="true"
       inkscape:rounded="0"
       inkscape:randomized="0"
       d="M 73.153059,57.37918 47.142856,72.396177 21.132654,57.37918 l 0,-30.033995 26.010203,-15.016997 26.010202,15.016997 z"
       inkscape:tile-cx="47.142857"
       inkscape:tile-cy="42.362183"
       inkscape:tile-w="52.020405"
       inkscape:tile-h="60.067989"
       inkscape:tile-x0="21.132654"
       inkscape:tile-y0="12.328188"
       transform="translate(159.31384,720.18491)" />
    <use
       style="display:inline"
       x="0"
       y="0"
       inkscape:tiled-clone-of="#path3007-5-2"
       xlink:href="#path3007-5-2"
       transform="translate(105.29977,-441.31387)"
       id="use5381-2-6"
       width="744.09448"
       height="1052.3622"
       inkscape:export-filename="C:\Users\SLiV\Dropbox\Hemel en Aarde\HemelEnAarde\kaart3.png"
       inkscape:export-xdpi="182"
       inkscape:export-ydpi="182" />
    <use
       style="display:inline"
       x="0"
       y="0"
       inkscape:tiled-clone-of="#path3007-5-2"
       xlink:href="#path3007-5-2"
       transform="translate(157.32018,-441.31387)"
       id="use5405-6-8"
       width="744.09448"
       height="1052.3622"
       inkscape:export-filename="C:\Users\SLiV\Dropbox\Hemel en Aarde\HemelEnAarde\kaart3.png"
       inkscape:export-xdpi="182"
       inkscape:export-ydpi="182" />
    <use
       style="display:inline"
       x="0"
       y="0"
       inkscape:tiled-clone-of="#path3007-5-2"
       xlink:href="#path3007-5-2"
       transform="translate(209.34058,-441.31387)"
       id="use5429-8-0"
       width="744.09448"
       height="1052.3622"
       inkscape:export-filename="C:\Users\SLiV\Dropbox\Hemel en Aarde\HemelEnAarde\kaart3.png"
       inkscape:export-xdpi="182"
       inkscape:export-ydpi="182" />
  </g>
  <g
     inkscape:groupmode="layer"
     id="layer8"
     inkscape:label="City Wall"
     style="display:none">
    <path
       style="fill:none;stroke:#000000;stroke-width:3.4000001;stroke-linecap:butt;stroke-linejoin:miter;stroke-miterlimit:4;stroke-dasharray:none;stroke-opacity:1"
       d="m 207.4477,529.27044 26.16071,-14.82143 26.25,14.91072 25.98215,-15.17857 25.98214,15.26785 25.89286,-15.17857 25.89285,15 26.33929,-14.82143 25.71429,14.55358 26.33928,-14.82143 26.16072,15.08928 25.80357,-15.17857 26.07143,15.08929"
       id="path7162"
       inkscape:connector-curvature="0" />
    <use
       x="0"
       y="0"
       xlink:href="#path7162"
       id="use7171"
       transform="matrix(1,0,0,-1,0.18871122,642.22657)"
       width="744.09448"
       height="1052.3622" />
  </g>
  <g
     inkscape:groupmode="layer"
     id="layer3"
     inkscape:label="City"
     style="display:inline">
    <path
       sodipodi:type="star"
       style="fill:#bd6655;fill-opacity:1;stroke:#343434;stroke-width:2;stroke-miterlimit:4;stroke-opacity:1;stroke-dasharray:none"
       id="path3007-52"
       sodipodi:sides="6"
       sodipodi:cx="47.142857"
       sodipodi:cy="42.362183"
       sodipodi:r1="30.033995"
       sodipodi:r2="26.010202"
       sodipodi:arg1="0.52359878"
       sodipodi:arg2="1.0471976"
       inkscape:flatsided="true"
       inkscape:rounded="0"
       inkscape:randomized="0"
       d="M 73.153059,57.37918 47.142856,72.396177 21.132654,57.37918 l 0,-30.033995 26.010203,-15.016997 26.010202,15.016997 z"
       inkscape:tile-cx="47.142857"
       inkscape:tile-cy="42.362183"
       inkscape:tile-w="52.020405"
       inkscape:tile-h="60.067989"
       inkscape:tile-x0="21.132654"
       inkscape:tile-y0="12.328188"
       transform="translate(227.87291,717.63668)" />
    <use
       x="0"
       y="0"
       inkscape:tiled-clone-of="#path3007-52"
       xlink:href="#path3007-52"
       transform="translate(-41.432256,-664.06141)"
       id="use5275-1"
       width="744.09448"
       height="1052.3622"
       inkscape:export-filename="C:\Users\SLiV\Dropbox\Hemel en Aarde\HemelEnAarde\kaart3.png"
       inkscape:export-xdpi="182"
       inkscape:export-ydpi="182" />
    <use
       x="0"
       y="0"
       inkscape:tiled-clone-of="#path3007-52"
       xlink:href="#path3007-52"
       transform="translate(10.588154,-664.06141)"
       id="use5299-6"
       width="744.09448"
       height="1052.3622"
       inkscape:export-filename="C:\Users\SLiV\Dropbox\Hemel en Aarde\HemelEnAarde\kaart3.png"
       inkscape:export-xdpi="182"
       inkscape:export-ydpi="182" />
    <use
       x="0"
       y="0"
       inkscape:tiled-clone-of="#path3007-52"
       xlink:href="#path3007-52"
       transform="translate(62.608566,-664.06141)"
       id="use5323-1"
       width="744.09448"
       height="1052.3622"
       inkscape:export-filename="C:\Users\SLiV\Dropbox\Hemel en Aarde\HemelEnAarde\kaart3.png"
       inkscape:export-xdpi="182"
       inkscape:export-ydpi="182" />
    <use
       x="0"
       y="0"
       inkscape:tiled-clone-of="#path3007-52"
       xlink:href="#path3007-52"
       transform="translate(114.62897,-664.06141)"
       id="use5347-7"
       width="744.09448"
       height="1052.3622"
       inkscape:export-filename="C:\Users\SLiV\Dropbox\Hemel en Aarde\HemelEnAarde\kaart3.png"
       inkscape:export-xdpi="182"
       inkscape:export-ydpi="182" />
    <use
       x="0"
       y="0"
       inkscape:tiled-clone-of="#path3007-52"
       xlink:href="#path3007-52"
       transform="translate(166.64938,-664.06141)"
       id="use5371-3"
       width="744.09448"
       height="1052.3622"
       inkscape:export-filename="C:\Users\SLiV\Dropbox\Hemel en Aarde\HemelEnAarde\kaart3.png"
       inkscape:export-xdpi="182"
       inkscape:export-ydpi="182" />
    <use
       x="0"
       y="0"
       inkscape:tiled-clone-of="#path3007-52"
       xlink:href="#path3007-52"
       transform="translate(218.66978,-664.06141)"
       id="use5395-4"
       width="744.09448"
       height="1052.3622"
       inkscape:export-filename="C:\Users\SLiV\Dropbox\Hemel en Aarde\HemelEnAarde\kaart3.png"
       inkscape:export-xdpi="182"
       inkscape:export-ydpi="182" />
    <use
       x="0"
       y="0"
       inkscape:tiled-clone-of="#path3007-52"
       xlink:href="#path3007-52"
       transform="translate(-41.432256,-213.55149)"
       id="use5415-0"
       width="744.09448"
       height="1052.3622"
       inkscape:export-filename="C:\Users\SLiV\Dropbox\Hemel en Aarde\HemelEnAarde\kaart3.png"
       inkscape:export-xdpi="182"
       inkscape:export-ydpi="182" />
    <use
       x="0"
       y="0"
       inkscape:tiled-clone-of="#path3007-52"
       xlink:href="#path3007-52"
       transform="translate(10.588154,-213.55149)"
       id="use5439-6"
       width="744.09448"
       height="1052.3622"
       inkscape:export-filename="C:\Users\SLiV\Dropbox\Hemel en Aarde\HemelEnAarde\kaart3.png"
       inkscape:export-xdpi="182"
       inkscape:export-ydpi="182" />
    <use
       x="0"
       y="0"
       inkscape:tiled-clone-of="#path3007-52"
       xlink:href="#path3007-52"
       transform="translate(62.608566,-213.55149)"
       id="use5463-1"
       width="744.09448"
       height="1052.3622"
       inkscape:export-filename="C:\Users\SLiV\Dropbox\Hemel en Aarde\HemelEnAarde\kaart3.png"
       inkscape:export-xdpi="182"
       inkscape:export-ydpi="182" />
    <use
       x="0"
       y="0"
       inkscape:tiled-clone-of="#path3007-52"
       xlink:href="#path3007-52"
       transform="translate(114.62897,-213.55149)"
       id="use5485-5"
       width="744.09448"
       height="1052.3622"
       inkscape:export-filename="C:\Users\SLiV\Dropbox\Hemel en Aarde\HemelEnAarde\kaart3.png"
       inkscape:export-xdpi="182"
       inkscape:export-ydpi="182" />
    <use
       x="0"
       y="0"
       inkscape:tiled-clone-of="#path3007-52"
       xlink:href="#path3007-52"
       transform="translate(166.64938,-213.55149)"
       id="use5503-0"
       width="744.09448"
       height="1052.3622"
       inkscape:export-filename="C:\Users\SLiV\Dropbox\Hemel en Aarde\HemelEnAarde\kaart3.png"
       inkscape:export-xdpi="182"
       inkscape:export-ydpi="182" />
    <use
       x="0"
       y="0"
       inkscape:tiled-clone-of="#path3007-52"
       xlink:href="#path3007-52"
       transform="translate(218.66978,-213.55149)"
       id="use5517-2"
       width="744.09448"
       height="1052.3622"
       inkscape:export-filename="C:\Users\SLiV\Dropbox\Hemel en Aarde\HemelEnAarde\kaart3.png"
       inkscape:export-xdpi="182"
       inkscape:export-ydpi="182" />
  </g>
  <g
     inkscape:groupmode="layer"
     id="layer9"
     inkscape:label="Gates"
     style="display:none">
    <path
       sodipodi:type="star"
       style="fill:none;stroke:#c7674b;stroke-width:15.54198265;stroke-miterlimit:4;stroke-dasharray:none;stroke-opacity:1"
       id="path7167"
       sodipodi:sides="6"
       sodipodi:cx="331.07751"
       sodipodi:cy="641.73517"
       sodipodi:r1="43.154476"
       sodipodi:r2="37.372871"
       sodipodi:arg1="0.52359878"
       sodipodi:arg2="1.0471976"
       inkscape:flatsided="true"
       inkscape:rounded="0"
       inkscape:randomized="0"
       d="m 368.45039,663.31241 -37.37288,21.57723 -37.37287,-21.57723 0,-43.15448 37.37287,-21.57724 37.37288,21.57724 z"
       transform="matrix(0.3887535,0,0,0.3887535,234.87123,251.60666)" />
    <use
       x="0"
       y="0"
       xlink:href="#path7167"
       id="use7169"
       transform="translate(0.25099848,-359.77711)"
       width="744.09448"
       height="1052.3622" />
  </g>
  <g
     inkscape:groupmode="layer"
     id="layer11"
     inkscape:label="Gates 2"
     style="display:inline">
    <path
       sodipodi:type="arc"
       style="fill:#bd6655;fill-opacity:1;stroke:#323232;stroke-width:2;stroke-miterlimit:4;stroke-opacity:1;stroke-dasharray:none"
       id="path7239"
       sodipodi:cx="366.91965"
       sodipodi:cy="501.24612"
       sodipodi:rx="13.348214"
       sodipodi:ry="13.348214"
       d="m 380.26786,501.24612 a 13.348214,13.348214 0 1 1 -26.69643,0 13.348214,13.348214 0 1 1 26.69643,0 z"
       transform="translate(-2.9464286,-0.80357143)"
       inkscape:export-filename="C:\Users\SLiV\Dropbox\Hemel en Aarde\HemelEnAarde\kaart3.png"
       inkscape:export-xdpi="182"
       inkscape:export-ydpi="182" />
    <use
       x="0"
       y="0"
       xlink:href="#path7239"
       id="use7241"
       transform="translate(-0.35714341,-359.19643)"
       width="744.09448"
       height="1052.3622"
       inkscape:export-xdpi="182"
       inkscape:export-ydpi="182"
       inkscape:export-filename="C:\Users\SLiV\Dropbox\Hemel en Aarde\HemelEnAarde\kaart3.png" />
  </g>
</svg>
